Interacting with the Cold Spring Harbour Laboratory API • rOpenSci: medrxivr
…
Accessing the raw API data

Both functions contain a clean argument with is set to TRUE by default. This is to ensure that the datasets returned by the mx_api_*() functions can immediately be passed to mx_search(). However, there may be occasions where this is not required, and so setting this argument to FALSE will return the raw data provided by the API endpoints. For example:

mx_api_content(to_date = "2019-07-01", clean = FALSE)
#> Estimated total number of records as per API metadata: 32
#> Number of records retrieved from API: 32
#> # A tibble: 32 x 14
#>    doi    title  authors  author_correspo… author_correspon… date  version type 
#>    <chr>  <chr>  <chr>    <chr>            <chr>             <chr> <chr>   <chr>
#>  1 10.11… Molec… Daniel … Robert Castelo   "Department of E… 2019… 1       ""   
#>  2 10.11… Crohn… Orna G … Orna G Ehrlich   "Crohn\\'s & Col… 2019… 1       ""   
#>  3 10.11… Updat… Joshua … Joshua D Wallach "Yale School of … 2019… 1       ""   
#>  4 10.11… Predi… Olivera… Olivera Stojano… "Institute of Co… 2019… 1       ""   
#>  5 10.11… Prosp… Nathan … Nathan Brajer    "Duke University… 2019… 1       ""   
#>  6 10.11… Trend… Brian M… Ben Goldacre     "University of O… 2019… 1       ""   
#>  7 10.11… 18F-A… Nicolas… Nicolas Nicastro "University of C… 2019… 1       ""   
#>  8 10.11… Perce… Sistani… Lena H Ting      "Emory Universit… 2019… 1       ""   
#>  9 10.11… Proxi… Tesfa D… Tesfa Dejenie H… "Department of E… 2019… 1       ""   
#> 10 10.11… Trans… Alexand… Alexandre Vivot  "APHP"            2019… 1       ""   
#> # … with 22 more rows, and 6 more variables: license <chr>, category <chr>,
#> #   jatsxml <chr>, abstract <chr>, published <chr>, server <chr>
…
